<?xml version="1.0" encoding="UTF-8"?>
<testng-results skipped="0" failed="0" total="1" passed="1">
  <reporter-output>
  </reporter-output>
  <suite name="Suite" duration-ms="9782" started-at="2015-10-02T19:32:08Z" finished-at="2015-10-02T19:32:18Z">
    <groups>
    </groups>
    <test name="Test" duration-ms="9782" started-at="2015-10-02T19:32:08Z" finished-at="2015-10-02T19:32:18Z">
      <class name="TreeboUI.LoginTest">
        <test-method status="PASS" signature="setup()[pri:0, instance:TreeboUI.LoginTest@4909b8da]" name="setup" is-config="true" duration-ms="6540" started-at="2015-10-03T01:02:08Z" finished-at="2015-10-03T01:02:15Z">
          <reporter-output>
          </reporter-output>
        </test-method> <!-- setup -->
        <test-method status="PASS" signature="test_login(java.lang.String, java.lang.String)[pri:0, instance:TreeboUI.LoginTest@4909b8da]" name="test_login" duration-ms="3234" started-at="2015-10-03T01:02:15Z" finished-at="2015-10-03T01:02:18Z">
          <params>
            <param index="0">
              <value>
                <![CDATA[toashishmantri@gmail.com]]>
              </value>
            </param>
            <param index="1">
              <value>
                <![CDATA[smssms0)]]>
              </value>
            </param>
          </params>
          <reporter-output>
          </reporter-output>
        </test-method> <!-- test_login -->
      </class> <!-- TreeboUI.LoginTest -->
    </test> <!-- Test -->
  </suite> <!-- Suite -->
</testng-results>
